…
``` r
# Load codeusage package
library(codeusage)
```

### Dataset: SNOMED Code Usage in Primary Care in England

This is only a selection of the full dataset published by NHS Digital,
for the data pre-processing see `/data-raw/snomed_code_usage.R`.

``` r
# Return SNOMED code usage data
snomed_usage
#> # A tibble: 1,523,967 × 7
#>    start_date end_date   snomed_concept_id description           usage active_at_start active_at_end
#>    <date>     <date>     <chr>             <chr>                 <int> <lgl>           <lgl>        
#>  1 2023-08-01 2024-07-31 279991000000102   Short message servi… 4.41e8 TRUE            TRUE         
#>  2 2023-08-01 2024-07-31 184103008         Patient telephone n… 1.91e8 TRUE            TRUE         
#>  3 2023-08-01 2024-07-31 428481002         Patient mobile tele… 1.16e8 TRUE            TRUE         
#>  4 2023-08-01 2024-07-31 423876004         Clinical document (… 7.81e7 TRUE            TRUE         
#>  5 2023-08-01 2024-07-31 72313002          Systolic arterial p… 6.87e7 TRUE            TRUE         
#>  6 2023-08-01 2024-07-31 1091811000000102  Diastolic arterial … 6.87e7 TRUE            TRUE         
#>  7 2023-08-01 2024-07-31 1000731000000107  Serum creatinine le… 4.82e7 TRUE            TRUE         
#>  8 2023-08-01 2024-07-31 60621009          Body mass index (ob… 4.65e7 TRUE            TRUE         
#>  9 2023-08-01 2024-07-31 1000661000000107  Serum sodium level … 4.63e7 TRUE            TRUE         
#> 10 2023-08-01 2024-07-31 1000651000000109  Serum potassium lev… 4.62e7 TRUE            TRUE         
#> # ℹ 1,523,957 more rows
```

### Dataset: ICD-10 Code Usage in Secondary Care in England

This package contains ICD-10 codes included in all diagnosis fields of
the Finished Consultant Episodes (FCE) in the Hospital Episode
Statistics in England.

This is only a selection of the full dataset published by NHS Digital,
for the data pre-processing see `/data-raw/icd10_usage.R`.

``` r
# Return ICD-10 code usage data
icd10_usage
#> # A tibble: 135,951 × 5
#>    start_date end_date   icd10_code description                                        usage
#>    <date>     <date>     <chr>      <chr>                                              <int>
#>  1 2023-04-01 2024-03-31 A000       Cholera due to Vibrio cholerae 01, biovar cholerae     2
#>  2 2023-04-01 2024-03-31 A009       Cholera, unspecified                                  40
#>  3 2023-04-01 2024-03-31 A010       Typhoid fever                                        884
#>  4 2023-04-01 2024-03-31 A011       Paratyphoid fever A                                  139
#>  5 2023-04-01 2024-03-31 A012       Paratyphoid fever B                                   13
#>  6 2023-04-01 2024-03-31 A013       Paratyphoid fever C                                    2
#>  7 2023-04-01 2024-03-31 A014       Paratyphoid fever, unspecified                        68
#>  8 2023-04-01 2024-03-31 A020       Salmonella enteritis                                2165
#>  9 2023-04-01 2024-03-31 A021       Salmonella sepsis                                    319
#> 10 2023-04-01 2024-03-31 A022       Localized salmonella infections                       82
#> # ℹ 135,941 more rows
```
